<svg xmlns="http://www.w3.org/2000/svg" xmlns:xlink="http://www.w3.org/1999/xlink" width="16" height="16" viewBox="0 0 16 16">
  <defs>
    <clipPath id="clip-path">
      <rect width="16" height="16" fill="none"/>
    </clipPath>
    <clipPath id="clip-path-2">
      <rect id="Retângulo_103" data-name="Retângulo 103" width="16" height="16" fill="#b9b9b9"/>
    </clipPath>
  </defs>
  <g id="Repetição_de_grade_4" data-name="Repetição de grade 4" clip-path="url(#clip-path)">
    <g transform="translate(0.392 -0.001)">
      <g id="Grupo_292" data-name="Grupo 292" transform="translate(-0.392 0.001)" clip-path="url(#clip-path-2)">
        <path id="Caminho_76" data-name="Caminho 76" d="M8.992,7.827l6.421-6.421A.824.824,0,0,0,14.248.241L7.827,6.662,1.406.241A.824.824,0,1,0,.241,1.406L6.662,7.827.241,14.248a.824.824,0,0,0,1.166,1.165L7.827,8.992l6.421,6.421a.824.824,0,1,0,1.165-1.165Z" transform="translate(0.348 -0.001)" fill="#b9b9b9"/>
      </g>
    </g>
  </g>
</svg>
