<svg xmlns="http://www.w3.org/2000/svg" xmlns:xlink="http://www.w3.org/1999/xlink" width="9.78" height="12.8" viewBox="0 0 9.78 12.8">
  <defs>
    <clipPath id="clip-path">
      <rect width="9.78" height="12.8" fill="none"/>
    </clipPath>
  </defs>
  <g id="Repetição_de_grade_3" data-name="Repetição de grade 3" clip-path="url(#clip-path)">
    <g transform="translate(-1225 -1850.6)">
      <path id="Caminho_3588" data-name="Caminho 3588" d="M6,0a.377.377,0,0,0-.266.11L.11,5.738a.376.376,0,0,0,.531.531L6,.907l5.355,5.355a.376.376,0,1,0,.531-.531L6.27.11A.377.377,0,0,0,6,0" transform="translate(1231.38 1851) rotate(90)" fill="#1c1c1c"/>
      <line id="Linha_394" data-name="Linha 394" y1="12" transform="translate(1234.38 1851)" fill="none" stroke="#1c1c1c" stroke-linecap="round" stroke-width="0.8"/>
    </g>
  </g>
</svg>
