<svg xmlns="http://www.w3.org/2000/svg" width="39" height="39" viewBox="0 0 39 39">
  <g id="Grupo_2219" data-name="Grupo 2219" transform="translate(-466.5 -1161)">
    <line id="Linha_426" data-name="Linha 426" y2="36" transform="translate(486 1162.5)" fill="none" stroke="#986f38" stroke-linecap="round" stroke-width="3"/>
    <line id="Linha_427" data-name="Linha 427" y2="36" transform="translate(504 1180.5) rotate(90)" fill="none" stroke="#986f38" stroke-linecap="round" stroke-width="3"/>
  </g>
</svg>
