<svg xmlns="http://www.w3.org/2000/svg" xmlns:xlink="http://www.w3.org/1999/xlink" width="24" height="24.246" viewBox="0 0 24 24.246">
  <defs>
    <clipPath id="clip-path">
      <rect width="24" height="24.246" fill="none"/>
    </clipPath>
  </defs>
  <g id="Repetição_de_grade_6" data-name="Repetição de grade 6" clip-path="url(#clip-path)">
    <g transform="translate(-7551.02 -7693.66)">
      <path id="Caminho_3645" data-name="Caminho 3645" d="M102.278,87.13A11.995,11.995,0,0,0,91.9,105.135h0l-1.63,6.241,6.344-1.68h0a11.993,11.993,0,1,0,5.665-22.566Zm7.053,19.047a9.981,9.981,0,0,1-12.445,1.341L93.2,108.5l.942-3.6a9.975,9.975,0,1,1,15.189,1.281Z" transform="translate(7460.75 7606.53)" fill="#fff"/>
      <path id="Caminho_3646" data-name="Caminho 3646" d="M184.954,184.684a3.362,3.362,0,0,1-.05.588,3.532,3.532,0,0,1-.145.58c-.149.42-.96.933-.96.933a3.086,3.086,0,0,1-1.956.507,4.335,4.335,0,0,1-.482-.077c-.27-.06-.4-.1-.4-.1-.13-.038-.469-.145-.469-.145-.338-.106-.414-.126-.414-.126a8.456,8.456,0,0,1-1.488-.606,14.74,14.74,0,0,1-2.29-1.663,13.541,13.541,0,0,1-1.907-2.091,8.826,8.826,0,0,1-.768-1.411c-.029-.072-.172-.4-.172-.4-.145-.325-.2-.45-.2-.45-.052-.126-.145-.387-.145-.387a3.937,3.937,0,0,1-.13-.47,3.606,3.606,0,0,1-.054-.435,3.778,3.778,0,0,1,.337-1.564,2.248,2.248,0,0,1,.821-1.059,4.147,4.147,0,0,1,.558-.205,2.865,2.865,0,0,1,.58-.116.48.48,0,0,1,.175.015c.152.041.475.605.475.605.1.152.273.435.273.435.174.281.32.507.32.507.145.228.281.428.281.428.027.032.157.2.157.2a2.47,2.47,0,0,1,.194.284.6.6,0,0,1,.072.233c.009.166-.213.428-.213.428a4.653,4.653,0,0,1-.488.484,5.636,5.636,0,0,0-.489.468c-.223.245-.217.394-.217.394a.706.706,0,0,0,.051.184c.048.109.08.166.08.166.032.056.127.192.127.192.095.136.1.152.1.152a9.809,9.809,0,0,0,1.55,1.866,10.155,10.155,0,0,0,2.029,1.333c.017.007.163.086.163.086.145.08.205.105.205.105.059.026.174.061.174.061a.584.584,0,0,0,.188.031c.149-.008.368-.257.368-.257a5.743,5.743,0,0,0,.41-.538,4.715,4.715,0,0,1,.427-.538.7.7,0,0,1,.4-.259.631.631,0,0,1,.239.045,2.9,2.9,0,0,1,.3.162l.217.133c.217.113.458.232.458.232.243.12.542.261.542.261.3.141.461.223.461.223.6.258.652.4.652.4A.6.6,0,0,1,184.954,184.684Z" transform="translate(7384.083 7524.11)" fill="#fff"/>
    </g>
  </g>
</svg>
