<svg xmlns="http://www.w3.org/2000/svg" xmlns:xlink="http://www.w3.org/1999/xlink" width="36" height="35.999" viewBox="0 0 36 35.999">
  <defs>
    <clipPath id="clip-path">
      <rect width="36" height="35.999" fill="none"/>
    </clipPath>
  </defs>
  <g id="Repetição_de_grade_9" data-name="Repetição de grade 9" clip-path="url(#clip-path)">
    <g transform="translate(-782 -526.999)">
      <path id="Caminho_2818" data-name="Caminho 2818" d="M1036.953,37.517a18,18,0,1,1,18-18,18.02,18.02,0,0,1-18,18m0-33.753a15.753,15.753,0,1,0,15.754,15.753,15.771,15.771,0,0,0-15.754-15.753" transform="translate(-236.953 525.481)" fill="#fff"/>
      <path id="Caminho_2819" data-name="Caminho 2819" d="M1036.469,28.335a.962.962,0,0,1-.657-.26L1029.353,22a.959.959,0,0,1,1.315-1.4L1036.4,26l8.788-10.084a.959.959,0,1,1,1.446,1.26l-9.443,10.834a.957.957,0,0,1-.676.328h-.047" transform="translate(-237.689 522.667)" fill="#fff"/>
    </g>
  </g>
</svg>
