<svg xmlns="http://www.w3.org/2000/svg" xmlns:xlink="http://www.w3.org/1999/xlink" width="36" height="35.999" viewBox="0 0 36 35.999">
  <defs>
    <clipPath id="clip-path">
      <rect id="Retângulo_1601" data-name="Retângulo 1601" width="36" height="35.999" fill="#837e6b"/>
    </clipPath>
  </defs>
  <g id="Grupo_2047" data-name="Grupo 2047" clip-path="url(#clip-path)">
    <path id="Caminho_3604" data-name="Caminho 3604" d="M13.473,10.269l5.608-5.607V22.536a1.366,1.366,0,1,0,2.731,0V4.662l5.607,5.607a1.366,1.366,0,0,0,1.932-1.932L21.412.4A1.368,1.368,0,0,0,21.2.229C21.17.207,21.134.191,21.1.172A1.363,1.363,0,0,0,20.969.1c-.045-.019-.093-.03-.139-.044s-.076-.026-.116-.034a1.369,1.369,0,0,0-.535,0c-.04.009-.077.023-.116.034s-.094.025-.139.044a1.363,1.363,0,0,0-.13.068c-.035.02-.072.035-.105.058a1.368,1.368,0,0,0-.208.17L11.542,8.338a1.366,1.366,0,1,0,1.932,1.932" transform="translate(-2.447 0)" fill="#837e6b"/>
    <path id="Caminho_3605" data-name="Caminho 3605" d="M34.634,27.127a1.366,1.366,0,0,0-1.366,1.366V39.078a.146.146,0,0,1-.146.147H2.878a.147.147,0,0,1-.147-.147V28.493a1.366,1.366,0,0,0-2.731,0V39.078a2.881,2.881,0,0,0,2.878,2.878H33.123A2.881,2.881,0,0,0,36,39.078V28.493a1.366,1.366,0,0,0-1.366-1.366" transform="translate(0 -5.957)" fill="#837e6b"/>
  </g>
</svg>
